{
    "exec": "npm run lint && node",
    "ignore": [
        "config",
        "tests",
        "tmp",
        ".git",
        "node_modules",
        ".gitignore",
        "coverage",
        "package.json",
        "package-lock.json",
        "postman_collection.json",
        "openapi.yaml"
    ]
}